{
  "timestamp": 1697591990000,
  "version": 20002,
  "index": {
    "name": "/index-v2.json",
    "sha256": "93c9d87eb1554f6fb98ec3ec8ce0f2cd0bad1ca898e5afbc7711042f187f820e",
    "size": 202940,
    "numPackages": 16
  },
  "diffs": {}
}